<svg xmlns="http://www.w3.org/2000/svg" width="30" height="30" viewBox="0 0 30 30">
  <g id="ic_call" transform="translate(-4248 -3846)">
    <rect id="Base" width="30" height="30" transform="translate(4248 3846)" fill="none"/>
    <path id="Icon" d="M249.62-256.21a15.149,15.149,0,0,0,6.59,6.59l2.2-2.2a.994.994,0,0,1,1.02-.24,11.407,11.407,0,0,0,3.57.57,1,1,0,0,1,1,1V-247a1,1,0,0,1-1,1,17,17,0,0,1-17-17,1,1,0,0,1,1-1h3.5a1,1,0,0,1,1,1,11.36,11.36,0,0,0,.57,3.57,1,1,0,0,1-.25,1.02l-2.2,2.2Z" transform="translate(4008 4116)" fill="#d9d9d9" fill-rule="evenodd"/>
  </g>
</svg>
