<svg xmlns="http://www.w3.org/2000/svg" width="10.511" height="10.687" viewBox="0 0 10.511 10.687">
  <g id="Group_4621" data-name="Group 4621" transform="translate(-91.744 -970.263)">
    <path id="Path_2658" data-name="Path 2658" d="M7.366,147.539H.282A.282.282,0,0,0,0,147.82v1.314a.282.282,0,0,0,.282.282H7.366V150.5a.563.563,0,0,0,.961.4l2.019-2.019a.563.563,0,0,0,0-.8L8.327,146.06a.563.563,0,0,0-.961.4Z" transform="translate(91.744 824.37)" fill="#d9d9d9"/>
    <path id="Path_2659" data-name="Path 2659" d="M7.366,1.645H.282A.282.282,0,0,0,0,1.927V3.24a.282.282,0,0,0,.282.282H7.366V4.6a.563.563,0,0,0,.961.4l2.019-2.019a.563.563,0,0,0,0-.8L8.327.166a.563.563,0,0,0-.961.4Z" transform="translate(102.255 980.951) rotate(180)" fill="#d9d9d9"/>
  </g>
</svg>
