<svg xmlns="http://www.w3.org/2000/svg" width="17.599" height="13.4" viewBox="0 0 17.599 13.4">
  <g id="done_icon" data-name="done icon" transform="translate(-13224.401 -157.6)">
    <path id="done_icon-2" data-name="done icon" d="M13230,168.2l-4.2-4.2-1.4,1.4,5.6,5.6,12-12-1.4-1.4-10.6,10.6Z" fill="#ccc"/>
  </g>
</svg>
