<svg xmlns="http://www.w3.org/2000/svg" width="8.472" height="13.72" viewBox="0 0 8.472 13.72">
  <path id="Icon" d="M170.612-99l5.248,5.237L181.108-99l1.612,1.612-6.86,6.86L169-97.388Z" transform="translate(-90.528 -169) rotate(90)" fill-rule="evenodd"/>
</svg>
